Relatório de Indicadores de Temas de Saúde 2023
…
# Exibe o data frame resultante
print(uf_summary)

## # A tibble: 27 × 15
##    regiao       uf    pop_total saude_bucal alimentacao_saudavel
##    <chr>        <chr>     <dbl>       <dbl>                <dbl>
##  1 Centro-Oeste DF      2091149        4594                 7231
##  2 Centro-Oeste GO      5297680        8407                11193
##  3 Centro-Oeste MS      2478654       15710                 6374
##  4 Centro-Oeste MT      3082321       13207                 6646
##  5 Nordeste     AL      2552709       27255                14671
##  6 Nordeste     BA     12158963       30086                32937
##  7 Nordeste     CE      8761012       19494                24476
##  8 Nordeste     MA      6022076       13229                14010
##  9 Nordeste     PB      3775421        9141                 7614
## 10 Nordeste     PE      7534514       27689                24964
## # ℹ 17 more rows
## # ℹ 10 more variables: saude_sexual_e_reprodutiva <dbl>, saude_mental <dbl>,
## #   autocuidado_de_pessoas_com_doe <dbl>, total_temas <dbl>,
## #   ind_saude_bucal <dbl>, ind_alimentacao_saudavel <dbl>,
## #   ind_saude_sexual_e_reprodutiva <dbl>, ind_saude_mental <dbl>,
## #   ind_autocuidado_de_pessoas_com_doe <dbl>, ind_total_temas <dbl>
…
